<?xml version="1.0" encoding="utf-8"?>
<!-- Generator: Adobe Illustrator 20.1.0, SVG Export Plug-In . SVG Version: 6.00 Build 0)  -->
<svg version="1.1" id="Layer_1" xmlns="http://www.w3.org/2000/svg" xmlns:xlink="http://www.w3.org/1999/xlink" x="0px" y="0px"
	 viewBox="0 0 37.6 9.4" style="enable-background:new 0 0 37.6 9.4;" xml:space="preserve">
<style type="text/css">
	.st0{fill:#562D8B;}
	.st1{fill:#4198D4;}
	.st2{fill:#86BC40;}
	.st3{fill:#333333;}
</style>
<g>
	<path class="st0" d="M12.3,0h9.4v1.9h-9.4C12.3,1.9,12.3,0,12.3,0z"/>
	<path class="st1" d="M12.3,3.7h9.4v1.9h-9.4C12.3,5.6,12.3,3.7,12.3,3.7z"/>
	<path class="st2" d="M12.3,7.5h9.4v1.9h-9.4C12.3,9.4,12.3,7.5,12.3,7.5z"/>
	<path class="st3" d="M30.6,0h-7v9.4h7c1.3,0,2.4-1.1,2.4-2.4V2.4C32.9,1.1,31.9,0,30.6,0L30.6,0z M30.6,1.9c0.2,0,0.5,0.2,0.5,0.5
		v4.7c0,0.2-0.2,0.5-0.5,0.5h-5.2V1.9H30.6z"/>
	<path class="st3" d="M9.4,9.4h-7C1.1,9.4,0,8.3,0,7V2.4C0,1.1,1.1,0,2.4,0h7v1.9h-7c-0.2,0-0.5,0.2-0.5,0.5v4.7
		c0,0.2,0.2,0.5,0.5,0.5h7C9.4,7.5,9.4,9.4,9.4,9.4z"/>
</g>
</svg>
