{
  "type": "File",
  "start": 0,
  "end": 387,
  "loc": {
    "start": {
      "line": 1,
      "column": 0
    },
    "end": {
      "line": 10,
      "column": 0
    }
  },
  "program": {
    "type": "Program",
    "start": 0,
    "end": 387,
    "loc": {
      "start": {
        "line": 1,
        "column": 0
      },
      "end": {
        "line": 10,
        "column": 0
      }
    },
    "sourceType": "module",
    "body": [
      {
        "type": "ExpressionStatement",
        "start": 2,
        "end": 385,
        "loc": {
          "start": {
            "line": 2,
            "column": 0
          },
          "end": {
            "line": 9,
            "column": 3
          }
        },
        "expression": {
          "type": "CallExpression",
          "start": 2,
          "end": 384,
          "loc": {
            "start": {
              "line": 2,
              "column": 0
            },
            "end": {
              "line": 9,
              "column": 2
            }
          },
          "callee": {
            "type": "MemberExpression",
            "start": 2,
            "end": 39,
            "loc": {
              "start": {
                "line": 2,
                "column": 0
              },
              "end": {
                "line": 2,
                "column": 37
              }
            },
            "object": {
              "type": "CallExpression",
              "start": 2,
              "end": 28,
              "loc": {
                "start": {
                  "line": 2,
                  "column": 0
                },
                "end": {
                  "line": 2,
                  "column": 26
                }
              },
              "callee": {
                "type": "MemberExpression",
                "start": 2,
                "end": 16,
                "loc": {
                  "start": {
                    "line": 2,
                    "column": 0
                  },
                  "end": {
                    "line": 2,
                    "column": 14
                  }
                },
                "object": {
                  "type": "Identifier",
                  "start": 2,
                  "end": 9,
                  "loc": {
                    "start": {
                      "line": 2,
                      "column": 0
                    },
                    "end": {
                      "line": 2,
                      "column": 7
                    },
                    "identifierName": "angular"
                  },
                  "name": "angular"
                },
                "property": {
                  "type": "Identifier",
                  "start": 10,
                  "end": 16,
                  "loc": {
                    "start": {
                      "line": 2,
                      "column": 8
                    },
                    "end": {
                      "line": 2,
                      "column": 14
                    },
                    "identifierName": "module"
                  },
                  "name": "module"
                },
                "computed": false
              },
              "arguments": [
                {
                  "type": "StringLiteral",
                  "start": 17,
                  "end": 27,
                  "loc": {
                    "start": {
                      "line": 2,
                      "column": 15
                    },
                    "end": {
                      "line": 2,
                      "column": 25
                    }
                  },
                  "extra": {
                    "rawValue": "workshop",
                    "raw": "'workshop'"
                  },
                  "value": "workshop"
                }
              ]
            },
            "property": {
              "type": "Identifier",
              "start": 29,
              "end": 39,
              "loc": {
                "start": {
                  "line": 2,
                  "column": 27
                },
                "end": {
                  "line": 2,
                  "column": 37
                },
                "identifierName": "controller"
              },
              "name": "controller"
            },
            "computed": false
          },
          "arguments": [
            {
              "type": "StringLiteral",
              "start": 40,
              "end": 65,
              "loc": {
                "start": {
                  "line": 2,
                  "column": 38
                },
                "end": {
                  "line": 2,
                  "column": 63
                }
              },
              "extra": {
                "rawValue": "BedrijfUpdateController",
                "raw": "'BedrijfUpdateController'"
              },
              "value": "BedrijfUpdateController"
            },
            {
              "type": "FunctionExpression",
              "start": 67,
              "end": 383,
              "loc": {
                "start": {
                  "line": 2,
                  "column": 65
                },
                "end": {
                  "line": 9,
                  "column": 1
                }
              },
              "id": null,
              "generator": false,
              "expression": false,
              "async": false,
              "params": [
                {
                  "type": "Identifier",
                  "start": 76,
                  "end": 82,
                  "loc": {
                    "start": {
                      "line": 2,
                      "column": 74
                    },
                    "end": {
                      "line": 2,
                      "column": 80
                    },
                    "identifierName": "$scope"
                  },
                  "name": "$scope"
                },
                {
                  "type": "Identifier",
                  "start": 84,
                  "end": 98,
                  "loc": {
                    "start": {
                      "line": 2,
                      "column": 82
                    },
                    "end": {
                      "line": 2,
                      "column": 96
                    },
                    "identifierName": "bedrijfService"
                  },
                  "name": "bedrijfService"
                }
              ],
              "body": {
                "type": "BlockStatement",
                "start": 101,
                "end": 383,
                "loc": {
                  "start": {
                    "line": 3,
                    "column": 0
                  },
                  "end": {
                    "line": 9,
                    "column": 1
                  }
                },
                "body": [
                  {
                    "type": "ExpressionStatement",
                    "start": 108,
                    "end": 380,
                    "loc": {
                      "start": {
                        "line": 4,
                        "column": 4
                      },
                      "end": {
                        "line": 8,
                        "column": 6
                      }
                    },
                    "expression": {
                      "type": "AssignmentExpression",
                      "start": 108,
                      "end": 379,
                      "loc": {
                        "start": {
                          "line": 4,
                          "column": 4
                        },
                        "end": {
                          "line": 8,
                          "column": 5
                        }
                      },
                      "operator": "=",
                      "left": {
                        "type": "MemberExpression",
                        "start": 108,
                        "end": 128,
                        "loc": {
                          "start": {
                            "line": 4,
                            "column": 4
                          },
                          "end": {
                            "line": 4,
                            "column": 24
                          }
                        },
                        "object": {
                          "type": "Identifier",
                          "start": 108,
                          "end": 114,
                          "loc": {
                            "start": {
                              "line": 4,
                              "column": 4
                            },
                            "end": {
                              "line": 4,
                              "column": 10
                            },
                            "identifierName": "$scope"
                          },
                          "name": "$scope"
                        },
                        "property": {
                          "type": "Identifier",
                          "start": 115,
                          "end": 128,
                          "loc": {
                            "start": {
                              "line": 4,
                              "column": 11
                            },
                            "end": {
                              "line": 4,
                              "column": 24
                            },
                            "identifierName": "updateCompany"
                          },
                          "name": "updateCompany"
                        },
                        "computed": false
                      },
                      "right": {
                        "type": "FunctionExpression",
                        "start": 131,
                        "end": 379,
                        "loc": {
                          "start": {
                            "line": 4,
                            "column": 27
                          },
                          "end": {
                            "line": 8,
                            "column": 5
                          }
                        },
                        "id": null,
                        "generator": false,
                        "expression": false,
                        "async": false,
                        "params": [
                          {
                            "type": "Identifier",
                            "start": 140,
                            "end": 142,
                            "loc": {
                              "start": {
                                "line": 4,
                                "column": 36
                              },
                              "end": {
                                "line": 4,
                                "column": 38
                              },
                              "identifierName": "id"
                            },
                            "name": "id"
                          }
                        ],
                        "body": {
                          "type": "BlockStatement",
                          "start": 143,
                          "end": 379,
                          "loc": {
                            "start": {
                              "line": 4,
                              "column": 39
                            },
                            "end": {
                              "line": 8,
                              "column": 5
                            }
                          },
                          "body": [
                            {
                              "type": "ExpressionStatement",
                              "start": 160,
                              "end": 364,
                              "loc": {
                                "start": {
                                  "line": 5,
                                  "column": 8
                                },
                                "end": {
                                  "line": 7,
                                  "column": 10
                                }
                              },
                              "expression": {
                                "type": "CallExpression",
                                "start": 160,
                                "end": 363,
                                "loc": {
                                  "start": {
                                    "line": 5,
                                    "column": 8
                                  },
                                  "end": {
                                    "line": 7,
                                    "column": 9
                                  }
                                },
                                "callee": {
                                  "type": "MemberExpression",
                                  "start": 160,
                                  "end": 181,
                                  "loc": {
                                    "start": {
                                      "line": 5,
                                      "column": 8
                                    },
                                    "end": {
                                      "line": 5,
                                      "column": 29
                                    }
                                  },
                                  "object": {
                                    "type": "Identifier",
                                    "start": 160,
                                    "end": 174,
                                    "loc": {
                                      "start": {
                                        "line": 5,
                                        "column": 8
                                      },
                                      "end": {
                                        "line": 5,
                                        "column": 22
                                      },
                                      "identifierName": "bedrijfService"
                                    },
                                    "name": "bedrijfService"
                                  },
                                  "property": {
                                    "type": "Identifier",
                                    "start": 175,
                                    "end": 181,
                                    "loc": {
                                      "start": {
                                        "line": 5,
                                        "column": 23
                                      },
                                      "end": {
                                        "line": 5,
                                        "column": 29
                                      },
                                      "identifierName": "update"
                                    },
                                    "name": "update"
                                  },
                                  "computed": false
                                },
                                "arguments": [
                                  {
                                    "type": "MemberExpression",
                                    "start": 196,
                                    "end": 217,
                                    "loc": {
                                      "start": {
                                        "line": 6,
                                        "column": 12
                                      },
                                      "end": {
                                        "line": 6,
                                        "column": 33
                                      }
                                    },
                                    "object": {
                                      "type": "Identifier",
                                      "start": 196,
                                      "end": 202,
                                      "loc": {
                                        "start": {
                                          "line": 6,
                                          "column": 12
                                        },
                                        "end": {
                                          "line": 6,
                                          "column": 18
                                        },
                                        "identifierName": "$scope"
                                      },
                                      "name": "$scope"
                                    },
                                    "property": {
                                      "type": "Identifier",
                                      "start": 203,
                                      "end": 217,
                                      "loc": {
                                        "start": {
                                          "line": 6,
                                          "column": 19
                                        },
                                        "end": {
                                          "line": 6,
                                          "column": 33
                                        },
                                        "identifierName": "telefoonnummer"
                                      },
                                      "name": "telefoonnummer"
                                    },
                                    "computed": false
                                  },
                                  {
                                    "type": "MemberExpression",
                                    "start": 218,
                                    "end": 229,
                                    "loc": {
                                      "start": {
                                        "line": 6,
                                        "column": 34
                                      },
                                      "end": {
                                        "line": 6,
                                        "column": 45
                                      }
                                    },
                                    "object": {
                                      "type": "Identifier",
                                      "start": 218,
                                      "end": 224,
                                      "loc": {
                                        "start": {
                                          "line": 6,
                                          "column": 34
                                        },
                                        "end": {
                                          "line": 6,
                                          "column": 40
                                        },
                                        "identifierName": "$scope"
                                      },
                                      "name": "$scope"
                                    },
                                    "property": {
                                      "type": "Identifier",
                                      "start": 225,
                                      "end": 229,
                                      "loc": {
                                        "start": {
                                          "line": 6,
                                          "column": 41
                                        },
                                        "end": {
                                          "line": 6,
                                          "column": 45
                                        },
                                        "identifierName": "naam"
                                      },
                                      "name": "naam"
                                    },
                                    "computed": false
                                  },
                                  {
                                    "type": "MemberExpression",
                                    "start": 230,
                                    "end": 242,
                                    "loc": {
                                      "start": {
                                        "line": 6,
                                        "column": 46
                                      },
                                      "end": {
                                        "line": 6,
                                        "column": 58
                                      }
                                    },
                                    "object": {
                                      "type": "Identifier",
                                      "start": 230,
                                      "end": 236,
                                      "loc": {
                                        "start": {
                                          "line": 6,
                                          "column": 46
                                        },
                                        "end": {
                                          "line": 6,
                                          "column": 52
                                        },
                                        "identifierName": "$scope"
                                      },
                                      "name": "$scope"
                                    },
                                    "property": {
                                      "type": "Identifier",
                                      "start": 237,
                                      "end": 242,
                                      "loc": {
                                        "start": {
                                          "line": 6,
                                          "column": 53
                                        },
                                        "end": {
                                          "line": 6,
                                          "column": 58
                                        },
                                        "identifierName": "adres"
                                      },
                                      "name": "adres"
                                    },
                                    "computed": false
                                  },
                                  {
                                    "type": "MemberExpression",
                                    "start": 243,
                                    "end": 256,
                                    "loc": {
                                      "start": {
                                        "line": 6,
                                        "column": 59
                                      },
                                      "end": {
                                        "line": 6,
                                        "column": 72
                                      }
                                    },
                                    "object": {
                                      "type": "Identifier",
                                      "start": 243,
                                      "end": 249,
                                      "loc": {
                                        "start": {
                                          "line": 6,
                                          "column": 59
                                        },
                                        "end": {
                                          "line": 6,
                                          "column": 65
                                        },
                                        "identifierName": "$scope"
                                      },
                                      "name": "$scope"
                                    },
                                    "property": {
                                      "type": "Identifier",
                                      "start": 250,
                                      "end": 256,
                                      "loc": {
                                        "start": {
                                          "line": 6,
                                          "column": 66
                                        },
                                        "end": {
                                          "line": 6,
                                          "column": 72
                                        },
                                        "identifierName": "plaats"
                                      },
                                      "name": "plaats"
                                    },
                                    "computed": false
                                  },
                                  {
                                    "type": "MemberExpression",
                                    "start": 257,
                                    "end": 272,
                                    "loc": {
                                      "start": {
                                        "line": 6,
                                        "column": 73
                                      },
                                      "end": {
                                        "line": 6,
                                        "column": 88
                                      }
                                    },
                                    "object": {
                                      "type": "Identifier",
                                      "start": 257,
                                      "end": 263,
                                      "loc": {
                                        "start": {
                                          "line": 6,
                                          "column": 73
                                        },
                                        "end": {
                                          "line": 6,
                                          "column": 79
                                        },
                                        "identifierName": "$scope"
                                      },
                                      "name": "$scope"
                                    },
                                    "property": {
                                      "type": "Identifier",
                                      "start": 264,
                                      "end": 272,
                                      "loc": {
                                        "start": {
                                          "line": 6,
                                          "column": 80
                                        },
                                        "end": {
                                          "line": 6,
                                          "column": 88
                                        },
                                        "identifierName": "postcode"
                                      },
                                      "name": "postcode"
                                    },
                                    "computed": false
                                  },
                                  {
                                    "type": "MemberExpression",
                                    "start": 273,
                                    "end": 298,
                                    "loc": {
                                      "start": {
                                        "line": 6,
                                        "column": 89
                                      },
                                      "end": {
                                        "line": 6,
                                        "column": 114
                                      }
                                    },
                                    "object": {
                                      "type": "Identifier",
                                      "start": 273,
                                      "end": 279,
                                      "loc": {
                                        "start": {
                                          "line": 6,
                                          "column": 89
                                        },
                                        "end": {
                                          "line": 6,
                                          "column": 95
                                        },
                                        "identifierName": "$scope"
                                      },
                                      "name": "$scope"
                                    },
                                    "property": {
                                      "type": "Identifier",
                                      "start": 280,
                                      "end": 298,
                                      "loc": {
                                        "start": {
                                          "line": 6,
                                          "column": 96
                                        },
                                        "end": {
                                          "line": 6,
                                          "column": 114
                                        },
                                        "identifierName": "contactpersoonNaam"
                                      },
                                      "name": "contactpersoonNaam"
                                    },
                                    "computed": false
                                  },
                                  {
                                    "type": "MemberExpression",
                                    "start": 299,
                                    "end": 323,
                                    "loc": {
                                      "start": {
                                        "line": 6,
                                        "column": 115
                                      },
                                      "end": {
                                        "line": 6,
                                        "column": 139
                                      }
                                    },
                                    "object": {
                                      "type": "Identifier",
                                      "start": 299,
                                      "end": 305,
                                      "loc": {
                                        "start": {
                                          "line": 6,
                                          "column": 115
                                        },
                                        "end": {
                                          "line": 6,
                                          "column": 121
                                        },
                                        "identifierName": "$scope"
                                      },
                                      "name": "$scope"
                                    },
                                    "property": {
                                      "type": "Identifier",
                                      "start": 306,
                                      "end": 323,
                                      "loc": {
                                        "start": {
                                          "line": 6,
                                          "column": 122
                                        },
                                        "end": {
                                          "line": 6,
                                          "column": 139
                                        },
                                        "identifierName": "contactpersoonTel"
                                      },
                                      "name": "contactpersoonTel"
                                    },
                                    "computed": false
                                  },
                                  {
                                    "type": "MemberExpression",
                                    "start": 324,
                                    "end": 349,
                                    "loc": {
                                      "start": {
                                        "line": 6,
                                        "column": 140
                                      },
                                      "end": {
                                        "line": 6,
                                        "column": 165
                                      }
                                    },
                                    "object": {
                                      "type": "Identifier",
                                      "start": 324,
                                      "end": 330,
                                      "loc": {
                                        "start": {
                                          "line": 6,
                                          "column": 140
                                        },
                                        "end": {
                                          "line": 6,
                                          "column": 146
                                        },
                                        "identifierName": "$scope"
                                      },
                                      "name": "$scope"
                                    },
                                    "property": {
                                      "type": "Identifier",
                                      "start": 331,
                                      "end": 349,
                                      "loc": {
                                        "start": {
                                          "line": 6,
                                          "column": 147
                                        },
                                        "end": {
                                          "line": 6,
                                          "column": 165
                                        },
                                        "identifierName": "contactpersoonMail"
                                      },
                                      "name": "contactpersoonMail"
                                    },
                                    "computed": false
                                  },
                                  {
                                    "type": "Identifier",
                                    "start": 350,
                                    "end": 352,
                                    "loc": {
                                      "start": {
                                        "line": 6,
                                        "column": 166
                                      },
                                      "end": {
                                        "line": 6,
                                        "column": 168
                                      },
                                      "identifierName": "id"
                                    },
                                    "name": "id"
                                  }
                                ]
                              }
                            }
                          ],
                          "directives": []
                        }
                      }
                    }
                  }
                ],
                "directives": []
              }
            }
          ]
        }
      }
    ],
    "directives": []
  },
  "comments": [],
  "tokens": [
    {
      "type": {
        "label": "name",
        "beforeExpr": false,
        "startsExpr": true,
        "rightAssociative": false,
        "isLoop": false,
        "isAssign": false,
        "prefix": false,
        "postfix": false,
        "binop": null
      },
      "value": "angular",
      "start": 2,
      "end": 9,
      "loc": {
        "start": {
          "line": 2,
          "column": 0
        },
        "end": {
          "line": 2,
          "column": 7
        }
      }
    },
    {
      "type": {
        "label": ".",
        "beforeExpr": false,
        "startsExpr": false,
        "rightAssociative": false,
        "isLoop": false,
        "isAssign": false,
        "prefix": false,
        "postfix": false,
        "binop": null,
        "updateContext": null
      },
      "start": 9,
      "end": 10,
      "loc": {
        "start": {
          "line": 2,
          "column": 7
        },
        "end": {
          "line": 2,
          "column": 8
        }
      }
    },
    {
      "type": {
        "label": "name",
        "beforeExpr": false,
        "startsExpr": true,
        "rightAssociative": false,
        "isLoop": false,
        "isAssign": false,
        "prefix": false,
        "postfix": false,
        "binop": null
      },
      "value": "module",
      "start": 10,
      "end": 16,
      "loc": {
        "start": {
          "line": 2,
          "column": 8
        },
        "end": {
          "line": 2,
          "column": 14
        }
      }
    },
    {
      "type": {
        "label": "(",
        "beforeExpr": true,
        "startsExpr": true,
        "rightAssociative": false,
        "isLoop": false,
        "isAssign": false,
        "prefix": false,
        "postfix": false,
        "binop": null
      },
      "start": 16,
      "end": 17,
      "loc": {
        "start": {
          "line": 2,
          "column": 14
        },
        "end": {
          "line": 2,
          "column": 15
        }
      }
    },
    {
      "type": {
        "label": "string",
        "beforeExpr": false,
        "startsExpr": true,
        "rightAssociative": false,
        "isLoop": false,
        "isAssign": false,
        "prefix": false,
        "postfix": false,
        "binop": null,
        "updateContext": null
      },
      "value": "workshop",
      "start": 17,
      "end": 27,
      "loc": {
        "start": {
          "line": 2,
          "column": 15
        },
        "end": {
          "line": 2,
          "column": 25
        }
      }
    },
    {
      "type": {
        "label": ")",
        "beforeExpr": false,
        "startsExpr": false,
        "rightAssociative": false,
        "isLoop": false,
        "isAssign": false,
        "prefix": false,
        "postfix": false,
        "binop": null
      },
      "start": 27,
      "end": 28,
      "loc": {
        "start": {
          "line": 2,
          "column": 25
        },
        "end": {
          "line": 2,
          "column": 26
        }
      }
    },
    {
      "type": {
        "label": ".",
        "beforeExpr": false,
        "startsExpr": false,
        "rightAssociative": false,
        "isLoop": false,
        "isAssign": false,
        "prefix": false,
        "postfix": false,
        "binop": null,
        "updateContext": null
      },
      "start": 28,
      "end": 29,
      "loc": {
        "start": {
          "line": 2,
          "column": 26
        },
        "end": {
          "line": 2,
          "column": 27
        }
      }
    },
    {
      "type": {
        "label": "name",
        "beforeExpr": false,
        "startsExpr": true,
        "rightAssociative": false,
        "isLoop": false,
        "isAssign": false,
        "prefix": false,
        "postfix": false,
        "binop": null
      },
      "value": "controller",
      "start": 29,
      "end": 39,
      "loc": {
        "start": {
          "line": 2,
          "column": 27
        },
        "end": {
          "line": 2,
          "column": 37
        }
      }
    },
    {
      "type": {
        "label": "(",
        "beforeExpr": true,
        "startsExpr": true,
        "rightAssociative": false,
        "isLoop": false,
        "isAssign": false,
        "prefix": false,
        "postfix": false,
        "binop": null
      },
      "start": 39,
      "end": 40,
      "loc": {
        "start": {
          "line": 2,
          "column": 37
        },
        "end": {
          "line": 2,
          "column": 38
        }
      }
    },
    {
      "type": {
        "label": "string",
        "beforeExpr": false,
        "startsExpr": true,
        "rightAssociative": false,
        "isLoop": false,
        "isAssign": false,
        "prefix": false,
        "postfix": false,
        "binop": null,
        "updateContext": null
      },
      "value": "BedrijfUpdateController",
      "start": 40,
      "end": 65,
      "loc": {
        "start": {
          "line": 2,
          "column": 38
        },
        "end": {
          "line": 2,
          "column": 63
        }
      }
    },
    {
      "type": {
        "label": ",",
        "beforeExpr": true,
        "startsExpr": false,
        "rightAssociative": false,
        "isLoop": false,
        "isAssign": false,
        "prefix": false,
        "postfix": false,
        "binop": null,
        "updateContext": null
      },
      "start": 65,
      "end": 66,
      "loc": {
        "start": {
          "line": 2,
          "column": 63
        },
        "end": {
          "line": 2,
          "column": 64
        }
      }
    },
    {
      "type": {
        "label": "function",
        "keyword": "function",
        "beforeExpr": false,
        "startsExpr": true,
        "rightAssociative": false,
        "isLoop": false,
        "isAssign": false,
        "prefix": false,
        "postfix": false,
        "binop": null
      },
      "value": "function",
      "start": 67,
      "end": 75,
      "loc": {
        "start": {
          "line": 2,
          "column": 65
        },
        "end": {
          "line": 2,
          "column": 73
        }
      }
    },
    {
      "type": {
        "label": "(",
        "beforeExpr": true,
        "startsExpr": true,
        "rightAssociative": false,
        "isLoop": false,
        "isAssign": false,
        "prefix": false,
        "postfix": false,
        "binop": null
      },
      "start": 75,
      "end": 76,
      "loc": {
        "start": {
          "line": 2,
          "column": 73
        },
        "end": {
          "line": 2,
          "column": 74
        }
      }
    },
    {
      "type": {
        "label": "name",
        "beforeExpr": false,
        "startsExpr": true,
        "rightAssociative": false,
        "isLoop": false,
        "isAssign": false,
        "prefix": false,
        "postfix": false,
        "binop": null
      },
      "value": "$scope",
      "start": 76,
      "end": 82,
      "loc": {
        "start": {
          "line": 2,
          "column": 74
        },
        "end": {
          "line": 2,
          "column": 80
        }
      }
    },
    {
      "type": {
        "label": ",",
        "beforeExpr": true,
        "startsExpr": false,
        "rightAssociative": false,
        "isLoop": false,
        "isAssign": false,
        "prefix": false,
        "postfix": false,
        "binop": null,
        "updateContext": null
      },
      "start": 82,
      "end": 83,
      "loc": {
        "start": {
          "line": 2,
          "column": 80
        },
        "end": {
          "line": 2,
          "column": 81
        }
      }
    },
    {
      "type": {
        "label": "name",
        "beforeExpr": false,
        "startsExpr": true,
        "rightAssociative": false,
        "isLoop": false,
        "isAssign": false,
        "prefix": false,
        "postfix": false,
        "binop": null
      },
      "value": "bedrijfService",
      "start": 84,
      "end": 98,
      "loc": {
        "start": {
          "line": 2,
          "column": 82
        },
        "end": {
          "line": 2,
          "column": 96
        }
      }
    },
    {
      "type": {
        "label": ")",
        "beforeExpr": false,
        "startsExpr": false,
        "rightAssociative": false,
        "isLoop": false,
        "isAssign": false,
        "prefix": false,
        "postfix": false,
        "binop": null
      },
      "start": 98,
      "end": 99,
      "loc": {
        "start": {
          "line": 2,
          "column": 96
        },
        "end": {
          "line": 2,
          "column": 97
        }
      }
    },
    {
      "type": {
        "label": "{",
        "beforeExpr": true,
        "startsExpr": true,
        "rightAssociative": false,
        "isLoop": false,
        "isAssign": false,
        "prefix": false,
        "postfix": false,
        "binop": null
      },
      "start": 101,
      "end": 102,
      "loc": {
        "start": {
          "line": 3,
          "column": 0
        },
        "end": {
          "line": 3,
          "column": 1
        }
      }
    },
    {
      "type": {
        "label": "name",
        "beforeExpr": false,
        "startsExpr": true,
        "rightAssociative": false,
        "isLoop": false,
        "isAssign": false,
        "prefix": false,
        "postfix": false,
        "binop": null
      },
      "value": "$scope",
      "start": 108,
      "end": 114,
      "loc": {
        "start": {
          "line": 4,
          "column": 4
        },
        "end": {
          "line": 4,
          "column": 10
        }
      }
    },
    {
      "type": {
        "label": ".",
        "beforeExpr": false,
        "startsExpr": false,
        "rightAssociative": false,
        "isLoop": false,
        "isAssign": false,
        "prefix": false,
        "postfix": false,
        "binop": null,
        "updateContext": null
      },
      "start": 114,
      "end": 115,
      "loc": {
        "start": {
          "line": 4,
          "column": 10
        },
        "end": {
          "line": 4,
          "column": 11
        }
      }
    },
    {
      "type": {
        "label": "name",
        "beforeExpr": false,
        "startsExpr": true,
        "rightAssociative": false,
        "isLoop": false,
        "isAssign": false,
        "prefix": false,
        "postfix": false,
        "binop": null
      },
      "value": "updateCompany",
      "start": 115,
      "end": 128,
      "loc": {
        "start": {
          "line": 4,
          "column": 11
        },
        "end": {
          "line": 4,
          "column": 24
        }
      }
    },
    {
      "type": {
        "label": "=",
        "beforeExpr": true,
        "startsExpr": false,
        "rightAssociative": false,
        "isLoop": false,
        "isAssign": true,
        "prefix": false,
        "postfix": false,
        "binop": null,
        "updateContext": null
      },
      "value": "=",
      "start": 129,
      "end": 130,
      "loc": {
        "start": {
          "line": 4,
          "column": 25
        },
        "end": {
          "line": 4,
          "column": 26
        }
      }
    },
    {
      "type": {
        "label": "function",
        "keyword": "function",
        "beforeExpr": false,
        "startsExpr": true,
        "rightAssociative": false,
        "isLoop": false,
        "isAssign": false,
        "prefix": false,
        "postfix": false,
        "binop": null
      },
      "value": "function",
      "start": 131,
      "end": 139,
      "loc": {
        "start": {
          "line": 4,
          "column": 27
        },
        "end": {
          "line": 4,
          "column": 35
        }
      }
    },
    {
      "type": {
        "label": "(",
        "beforeExpr": true,
        "startsExpr": true,
        "rightAssociative": false,
        "isLoop": false,
        "isAssign": false,
        "prefix": false,
        "postfix": false,
        "binop": null
      },
      "start": 139,
      "end": 140,
      "loc": {
        "start": {
          "line": 4,
          "column": 35
        },
        "end": {
          "line": 4,
          "column": 36
        }
      }
    },
    {
      "type": {
        "label": "name",
        "beforeExpr": false,
        "startsExpr": true,
        "rightAssociative": false,
        "isLoop": false,
        "isAssign": false,
        "prefix": false,
        "postfix": false,
        "binop": null
      },
      "value": "id",
      "start": 140,
      "end": 142,
      "loc": {
        "start": {
          "line": 4,
          "column": 36
        },
        "end": {
          "line": 4,
          "column": 38
        }
      }
    },
    {
      "type": {
        "label": ")",
        "beforeExpr": false,
        "startsExpr": false,
        "rightAssociative": false,
        "isLoop": false,
        "isAssign": false,
        "prefix": false,
        "postfix": false,
        "binop": null
      },
      "start": 142,
      "end": 143,
      "loc": {
        "start": {
          "line": 4,
          "column": 38
        },
        "end": {
          "line": 4,
          "column": 39
        }
      }
    },
    {
      "type": {
        "label": "{",
        "beforeExpr": true,
        "startsExpr": true,
        "rightAssociative": false,
        "isLoop": false,
        "isAssign": false,
        "prefix": false,
        "postfix": false,
        "binop": null
      },
      "start": 143,
      "end": 144,
      "loc": {
        "start": {
          "line": 4,
          "column": 39
        },
        "end": {
          "line": 4,
          "column": 40
        }
      }
    },
    {
      "type": {
        "label": "name",
        "beforeExpr": false,
        "startsExpr": true,
        "rightAssociative": false,
        "isLoop": false,
        "isAssign": false,
        "prefix": false,
        "postfix": false,
        "binop": null
      },
      "value": "bedrijfService",
      "start": 160,
      "end": 174,
      "loc": {
        "start": {
          "line": 5,
          "column": 8
        },
        "end": {
          "line": 5,
          "column": 22
        }
      }
    },
    {
      "type": {
        "label": ".",
        "beforeExpr": false,
        "startsExpr": false,
        "rightAssociative": false,
        "isLoop": false,
        "isAssign": false,
        "prefix": false,
        "postfix": false,
        "binop": null,
        "updateContext": null
      },
      "start": 174,
      "end": 175,
      "loc": {
        "start": {
          "line": 5,
          "column": 22
        },
        "end": {
          "line": 5,
          "column": 23
        }
      }
    },
    {
      "type": {
        "label": "name",
        "beforeExpr": false,
        "startsExpr": true,
        "rightAssociative": false,
        "isLoop": false,
        "isAssign": false,
        "prefix": false,
        "postfix": false,
        "binop": null
      },
      "value": "update",
      "start": 175,
      "end": 181,
      "loc": {
        "start": {
          "line": 5,
          "column": 23
        },
        "end": {
          "line": 5,
          "column": 29
        }
      }
    },
    {
      "type": {
        "label": "(",
        "beforeExpr": true,
        "startsExpr": true,
        "rightAssociative": false,
        "isLoop": false,
        "isAssign": false,
        "prefix": false,
        "postfix": false,
        "binop": null
      },
      "start": 181,
      "end": 182,
      "loc": {
        "start": {
          "line": 5,
          "column": 29
        },
        "end": {
          "line": 5,
          "column": 30
        }
      }
    },
    {
      "type": {
        "label": "name",
        "beforeExpr": false,
        "startsExpr": true,
        "rightAssociative": false,
        "isLoop": false,
        "isAssign": false,
        "prefix": false,
        "postfix": false,
        "binop": null
      },
      "value": "$scope",
      "start": 196,
      "end": 202,
      "loc": {
        "start": {
          "line": 6,
          "column": 12
        },
        "end": {
          "line": 6,
          "column": 18
        }
      }
    },
    {
      "type": {
        "label": ".",
        "beforeExpr": false,
        "startsExpr": false,
        "rightAssociative": false,
        "isLoop": false,
        "isAssign": false,
        "prefix": false,
        "postfix": false,
        "binop": null,
        "updateContext": null
      },
      "start": 202,
      "end": 203,
      "loc": {
        "start": {
          "line": 6,
          "column": 18
        },
        "end": {
          "line": 6,
          "column": 19
        }
      }
    },
    {
      "type": {
        "label": "name",
        "beforeExpr": false,
        "startsExpr": true,
        "rightAssociative": false,
        "isLoop": false,
        "isAssign": false,
        "prefix": false,
        "postfix": false,
        "binop": null
      },
      "value": "telefoonnummer",
      "start": 203,
      "end": 217,
      "loc": {
        "start": {
          "line": 6,
          "column": 19
        },
        "end": {
          "line": 6,
          "column": 33
        }
      }
    },
    {
      "type": {
        "label": ",",
        "beforeExpr": true,
        "startsExpr": false,
        "rightAssociative": false,
        "isLoop": false,
        "isAssign": false,
        "prefix": false,
        "postfix": false,
        "binop": null,
        "updateContext": null
      },
      "start": 217,
      "end": 218,
      "loc": {
        "start": {
          "line": 6,
          "column": 33
        },
        "end": {
          "line": 6,
          "column": 34
        }
      }
    },
    {
      "type": {
        "label": "name",
        "beforeExpr": false,
        "startsExpr": true,
        "rightAssociative": false,
        "isLoop": false,
        "isAssign": false,
        "prefix": false,
        "postfix": false,
        "binop": null
      },
      "value": "$scope",
      "start": 218,
      "end": 224,
      "loc": {
        "start": {
          "line": 6,
          "column": 34
        },
        "end": {
          "line": 6,
          "column": 40
        }
      }
    },
    {
      "type": {
        "label": ".",
        "beforeExpr": false,
        "startsExpr": false,
        "rightAssociative": false,
        "isLoop": false,
        "isAssign": false,
        "prefix": false,
        "postfix": false,
        "binop": null,
        "updateContext": null
      },
      "start": 224,
      "end": 225,
      "loc": {
        "start": {
          "line": 6,
          "column": 40
        },
        "end": {
          "line": 6,
          "column": 41
        }
      }
    },
    {
      "type": {
        "label": "name",
        "beforeExpr": false,
        "startsExpr": true,
        "rightAssociative": false,
        "isLoop": false,
        "isAssign": false,
        "prefix": false,
        "postfix": false,
        "binop": null
      },
      "value": "naam",
      "start": 225,
      "end": 229,
      "loc": {
        "start": {
          "line": 6,
          "column": 41
        },
        "end": {
          "line": 6,
          "column": 45
        }
      }
    },
    {
      "type": {
        "label": ",",
        "beforeExpr": true,
        "startsExpr": false,
        "rightAssociative": false,
        "isLoop": false,
        "isAssign": false,
        "prefix": false,
        "postfix": false,
        "binop": null,
        "updateContext": null
      },
      "start": 229,
      "end": 230,
      "loc": {
        "start": {
          "line": 6,
          "column": 45
        },
        "end": {
          "line": 6,
          "column": 46
        }
      }
    },
    {
      "type": {
        "label": "name",
        "beforeExpr": false,
        "startsExpr": true,
        "rightAssociative": false,
        "isLoop": false,
        "isAssign": false,
        "prefix": false,
        "postfix": false,
        "binop": null
      },
      "value": "$scope",
      "start": 230,
      "end": 236,
      "loc": {
        "start": {
          "line": 6,
          "column": 46
        },
        "end": {
          "line": 6,
          "column": 52
        }
      }
    },
    {
      "type": {
        "label": ".",
        "beforeExpr": false,
        "startsExpr": false,
        "rightAssociative": false,
        "isLoop": false,
        "isAssign": false,
        "prefix": false,
        "postfix": false,
        "binop": null,
        "updateContext": null
      },
      "start": 236,
      "end": 237,
      "loc": {
        "start": {
          "line": 6,
          "column": 52
        },
        "end": {
          "line": 6,
          "column": 53
        }
      }
    },
    {
      "type": {
        "label": "name",
        "beforeExpr": false,
        "startsExpr": true,
        "rightAssociative": false,
        "isLoop": false,
        "isAssign": false,
        "prefix": false,
        "postfix": false,
        "binop": null
      },
      "value": "adres",
      "start": 237,
      "end": 242,
      "loc": {
        "start": {
          "line": 6,
          "column": 53
        },
        "end": {
          "line": 6,
          "column": 58
        }
      }
    },
    {
      "type": {
        "label": ",",
        "beforeExpr": true,
        "startsExpr": false,
        "rightAssociative": false,
        "isLoop": false,
        "isAssign": false,
        "prefix": false,
        "postfix": false,
        "binop": null,
        "updateContext": null
      },
      "start": 242,
      "end": 243,
      "loc": {
        "start": {
          "line": 6,
          "column": 58
        },
        "end": {
          "line": 6,
          "column": 59
        }
      }
    },
    {
      "type": {
        "label": "name",
        "beforeExpr": false,
        "startsExpr": true,
        "rightAssociative": false,
        "isLoop": false,
        "isAssign": false,
        "prefix": false,
        "postfix": false,
        "binop": null
      },
      "value": "$scope",
      "start": 243,
      "end": 249,
      "loc": {
        "start": {
          "line": 6,
          "column": 59
        },
        "end": {
          "line": 6,
          "column": 65
        }
      }
    },
    {
      "type": {
        "label": ".",
        "beforeExpr": false,
        "startsExpr": false,
        "rightAssociative": false,
        "isLoop": false,
        "isAssign": false,
        "prefix": false,
        "postfix": false,
        "binop": null,
        "updateContext": null
      },
      "start": 249,
      "end": 250,
      "loc": {
        "start": {
          "line": 6,
          "column": 65
        },
        "end": {
          "line": 6,
          "column": 66
        }
      }
    },
    {
      "type": {
        "label": "name",
        "beforeExpr": false,
        "startsExpr": true,
        "rightAssociative": false,
        "isLoop": false,
        "isAssign": false,
        "prefix": false,
        "postfix": false,
        "binop": null
      },
      "value": "plaats",
      "start": 250,
      "end": 256,
      "loc": {
        "start": {
          "line": 6,
          "column": 66
        },
        "end": {
          "line": 6,
          "column": 72
        }
      }
    },
    {
      "type": {
        "label": ",",
        "beforeExpr": true,
        "startsExpr": false,
        "rightAssociative": false,
        "isLoop": false,
        "isAssign": false,
        "prefix": false,
        "postfix": false,
        "binop": null,
        "updateContext": null
      },
      "start": 256,
      "end": 257,
      "loc": {
        "start": {
          "line": 6,
          "column": 72
        },
        "end": {
          "line": 6,
          "column": 73
        }
      }
    },
    {
      "type": {
        "label": "name",
        "beforeExpr": false,
        "startsExpr": true,
        "rightAssociative": false,
        "isLoop": false,
        "isAssign": false,
        "prefix": false,
        "postfix": false,
        "binop": null
      },
      "value": "$scope",
      "start": 257,
      "end": 263,
      "loc": {
        "start": {
          "line": 6,
          "column": 73
        },
        "end": {
          "line": 6,
          "column": 79
        }
      }
    },
    {
      "type": {
        "label": ".",
        "beforeExpr": false,
        "startsExpr": false,
        "rightAssociative": false,
        "isLoop": false,
        "isAssign": false,
        "prefix": false,
        "postfix": false,
        "binop": null,
        "updateContext": null
      },
      "start": 263,
      "end": 264,
      "loc": {
        "start": {
          "line": 6,
          "column": 79
        },
        "end": {
          "line": 6,
          "column": 80
        }
      }
    },
    {
      "type": {
        "label": "name",
        "beforeExpr": false,
        "startsExpr": true,
        "rightAssociative": false,
        "isLoop": false,
        "isAssign": false,
        "prefix": false,
        "postfix": false,
        "binop": null
      },
      "value": "postcode",
      "start": 264,
      "end": 272,
      "loc": {
        "start": {
          "line": 6,
          "column": 80
        },
        "end": {
          "line": 6,
          "column": 88
        }
      }
    },
    {
      "type": {
        "label": ",",
        "beforeExpr": true,
        "startsExpr": false,
        "rightAssociative": false,
        "isLoop": false,
        "isAssign": false,
        "prefix": false,
        "postfix": false,
        "binop": null,
        "updateContext": null
      },
      "start": 272,
      "end": 273,
      "loc": {
        "start": {
          "line": 6,
          "column": 88
        },
        "end": {
          "line": 6,
          "column": 89
        }
      }
    },
    {
      "type": {
        "label": "name",
        "beforeExpr": false,
        "startsExpr": true,
        "rightAssociative": false,
        "isLoop": false,
        "isAssign": false,
        "prefix": false,
        "postfix": false,
        "binop": null
      },
      "value": "$scope",
      "start": 273,
      "end": 279,
      "loc": {
        "start": {
          "line": 6,
          "column": 89
        },
        "end": {
          "line": 6,
          "column": 95
        }
      }
    },
    {
      "type": {
        "label": ".",
        "beforeExpr": false,
        "startsExpr": false,
        "rightAssociative": false,
        "isLoop": false,
        "isAssign": false,
        "prefix": false,
        "postfix": false,
        "binop": null,
        "updateContext": null
      },
      "start": 279,
      "end": 280,
      "loc": {
        "start": {
          "line": 6,
          "column": 95
        },
        "end": {
          "line": 6,
          "column": 96
        }
      }
    },
    {
      "type": {
        "label": "name",
        "beforeExpr": false,
        "startsExpr": true,
        "rightAssociative": false,
        "isLoop": false,
        "isAssign": false,
        "prefix": false,
        "postfix": false,
        "binop": null
      },
      "value": "contactpersoonNaam",
      "start": 280,
      "end": 298,
      "loc": {
        "start": {
          "line": 6,
          "column": 96
        },
        "end": {
          "line": 6,
          "column": 114
        }
      }
    },
    {
      "type": {
        "label": ",",
        "beforeExpr": true,
        "startsExpr": false,
        "rightAssociative": false,
        "isLoop": false,
        "isAssign": false,
        "prefix": false,
        "postfix": false,
        "binop": null,
        "updateContext": null
      },
      "start": 298,
      "end": 299,
      "loc": {
        "start": {
          "line": 6,
          "column": 114
        },
        "end": {
          "line": 6,
          "column": 115
        }
      }
    },
    {
      "type": {
        "label": "name",
        "beforeExpr": false,
        "startsExpr": true,
        "rightAssociative": false,
        "isLoop": false,
        "isAssign": false,
        "prefix": false,
        "postfix": false,
        "binop": null
      },
      "value": "$scope",
      "start": 299,
      "end": 305,
      "loc": {
        "start": {
          "line": 6,
          "column": 115
        },
        "end": {
          "line": 6,
          "column": 121
        }
      }
    },
    {
      "type": {
        "label": ".",
        "beforeExpr": false,
        "startsExpr": false,
        "rightAssociative": false,
        "isLoop": false,
        "isAssign": false,
        "prefix": false,
        "postfix": false,
        "binop": null,
        "updateContext": null
      },
      "start": 305,
      "end": 306,
      "loc": {
        "start": {
          "line": 6,
          "column": 121
        },
        "end": {
          "line": 6,
          "column": 122
        }
      }
    },
    {
      "type": {
        "label": "name",
        "beforeExpr": false,
        "startsExpr": true,
        "rightAssociative": false,
        "isLoop": false,
        "isAssign": false,
        "prefix": false,
        "postfix": false,
        "binop": null
      },
      "value": "contactpersoonTel",
      "start": 306,
      "end": 323,
      "loc": {
        "start": {
          "line": 6,
          "column": 122
        },
        "end": {
          "line": 6,
          "column": 139
        }
      }
    },
    {
      "type": {
        "label": ",",
        "beforeExpr": true,
        "startsExpr": false,
        "rightAssociative": false,
        "isLoop": false,
        "isAssign": false,
        "prefix": false,
        "postfix": false,
        "binop": null,
        "updateContext": null
      },
      "start": 323,
      "end": 324,
      "loc": {
        "start": {
          "line": 6,
          "column": 139
        },
        "end": {
          "line": 6,
          "column": 140
        }
      }
    },
    {
      "type": {
        "label": "name",
        "beforeExpr": false,
        "startsExpr": true,
        "rightAssociative": false,
        "isLoop": false,
        "isAssign": false,
        "prefix": false,
        "postfix": false,
        "binop": null
      },
      "value": "$scope",
      "start": 324,
      "end": 330,
      "loc": {
        "start": {
          "line": 6,
          "column": 140
        },
        "end": {
          "line": 6,
          "column": 146
        }
      }
    },
    {
      "type": {
        "label": ".",
        "beforeExpr": false,
        "startsExpr": false,
        "rightAssociative": false,
        "isLoop": false,
        "isAssign": false,
        "prefix": false,
        "postfix": false,
        "binop": null,
        "updateContext": null
      },
      "start": 330,
      "end": 331,
      "loc": {
        "start": {
          "line": 6,
          "column": 146
        },
        "end": {
          "line": 6,
          "column": 147
        }
      }
    },
    {
      "type": {
        "label": "name",
        "beforeExpr": false,
        "startsExpr": true,
        "rightAssociative": false,
        "isLoop": false,
        "isAssign": false,
        "prefix": false,
        "postfix": false,
        "binop": null
      },
      "value": "contactpersoonMail",
      "start": 331,
      "end": 349,
      "loc": {
        "start": {
          "line": 6,
          "column": 147
        },
        "end": {
          "line": 6,
          "column": 165
        }
      }
    },
    {
      "type": {
        "label": ",",
        "beforeExpr": true,
        "startsExpr": false,
        "rightAssociative": false,
        "isLoop": false,
        "isAssign": false,
        "prefix": false,
        "postfix": false,
        "binop": null,
        "updateContext": null
      },
      "start": 349,
      "end": 350,
      "loc": {
        "start": {
          "line": 6,
          "column": 165
        },
        "end": {
          "line": 6,
          "column": 166
        }
      }
    },
    {
      "type": {
        "label": "name",
        "beforeExpr": false,
        "startsExpr": true,
        "rightAssociative": false,
        "isLoop": false,
        "isAssign": false,
        "prefix": false,
        "postfix": false,
        "binop": null
      },
      "value": "id",
      "start": 350,
      "end": 352,
      "loc": {
        "start": {
          "line": 6,
          "column": 166
        },
        "end": {
          "line": 6,
          "column": 168
        }
      }
    },
    {
      "type": {
        "label": ")",
        "beforeExpr": false,
        "startsExpr": false,
        "rightAssociative": false,
        "isLoop": false,
        "isAssign": false,
        "prefix": false,
        "postfix": false,
        "binop": null
      },
      "start": 362,
      "end": 363,
      "loc": {
        "start": {
          "line": 7,
          "column": 8
        },
        "end": {
          "line": 7,
          "column": 9
        }
      }
    },
    {
      "type": {
        "label": ";",
        "beforeExpr": true,
        "startsExpr": false,
        "rightAssociative": false,
        "isLoop": false,
        "isAssign": false,
        "prefix": false,
        "postfix": false,
        "binop": null,
        "updateContext": null
      },
      "start": 363,
      "end": 364,
      "loc": {
        "start": {
          "line": 7,
          "column": 9
        },
        "end": {
          "line": 7,
          "column": 10
        }
      }
    },
    {
      "type": {
        "label": "}",
        "beforeExpr": false,
        "startsExpr": false,
        "rightAssociative": false,
        "isLoop": false,
        "isAssign": false,
        "prefix": false,
        "postfix": false,
        "binop": null
      },
      "start": 378,
      "end": 379,
      "loc": {
        "start": {
          "line": 8,
          "column": 4
        },
        "end": {
          "line": 8,
          "column": 5
        }
      }
    },
    {
      "type": {
        "label": ";",
        "beforeExpr": true,
        "startsExpr": false,
        "rightAssociative": false,
        "isLoop": false,
        "isAssign": false,
        "prefix": false,
        "postfix": false,
        "binop": null,
        "updateContext": null
      },
      "start": 379,
      "end": 380,
      "loc": {
        "start": {
          "line": 8,
          "column": 5
        },
        "end": {
          "line": 8,
          "column": 6
        }
      }
    },
    {
      "type": {
        "label": "}",
        "beforeExpr": false,
        "startsExpr": false,
        "rightAssociative": false,
        "isLoop": false,
        "isAssign": false,
        "prefix": false,
        "postfix": false,
        "binop": null
      },
      "start": 382,
      "end": 383,
      "loc": {
        "start": {
          "line": 9,
          "column": 0
        },
        "end": {
          "line": 9,
          "column": 1
        }
      }
    },
    {
      "type": {
        "label": ")",
        "beforeExpr": false,
        "startsExpr": false,
        "rightAssociative": false,
        "isLoop": false,
        "isAssign": false,
        "prefix": false,
        "postfix": false,
        "binop": null
      },
      "start": 383,
      "end": 384,
      "loc": {
        "start": {
          "line": 9,
          "column": 1
        },
        "end": {
          "line": 9,
          "column": 2
        }
      }
    },
    {
      "type": {
        "label": ";",
        "beforeExpr": true,
        "startsExpr": false,
        "rightAssociative": false,
        "isLoop": false,
        "isAssign": false,
        "prefix": false,
        "postfix": false,
        "binop": null,
        "updateContext": null
      },
      "start": 384,
      "end": 385,
      "loc": {
        "start": {
          "line": 9,
          "column": 2
        },
        "end": {
          "line": 9,
          "column": 3
        }
      }
    },
    {
      "type": {
        "label": "eof",
        "beforeExpr": false,
        "startsExpr": false,
        "rightAssociative": false,
        "isLoop": false,
        "isAssign": false,
        "prefix": false,
        "postfix": false,
        "binop": null,
        "updateContext": null
      },
      "start": 387,
      "end": 387,
      "loc": {
        "start": {
          "line": 10,
          "column": 0
        },
        "end": {
          "line": 10,
          "column": 0
        }
      }
    }
  ]
}