{
  "type": "File",
  "start": 0,
  "end": 104,
  "loc": {
    "start": {
      "line": 1,
      "column": 0
    },
    "end": {
      "line": 6,
      "column": 0
    }
  },
  "program": {
    "type": "Program",
    "start": 0,
    "end": 104,
    "loc": {
      "start": {
        "line": 1,
        "column": 0
      },
      "end": {
        "line": 6,
        "column": 0
      }
    },
    "sourceType": "module",
    "body": [
      {
        "type": "ExpressionStatement",
        "start": 1,
        "end": 103,
        "loc": {
          "start": {
            "line": 2,
            "column": 0
          },
          "end": {
            "line": 5,
            "column": 3
          }
        },
        "expression": {
          "type": "CallExpression",
          "start": 1,
          "end": 102,
          "loc": {
            "start": {
              "line": 2,
              "column": 0
            },
            "end": {
              "line": 5,
              "column": 2
            }
          },
          "callee": {
            "type": "MemberExpression",
            "start": 1,
            "end": 38,
            "loc": {
              "start": {
                "line": 2,
                "column": 0
              },
              "end": {
                "line": 2,
                "column": 37
              }
            },
            "object": {
              "type": "CallExpression",
              "start": 1,
              "end": 27,
              "loc": {
                "start": {
                  "line": 2,
                  "column": 0
                },
                "end": {
                  "line": 2,
                  "column": 26
                }
              },
              "callee": {
                "type": "MemberExpression",
                "start": 1,
                "end": 15,
                "loc": {
                  "start": {
                    "line": 2,
                    "column": 0
                  },
                  "end": {
                    "line": 2,
                    "column": 14
                  }
                },
                "object": {
                  "type": "Identifier",
                  "start": 1,
                  "end": 8,
                  "loc": {
                    "start": {
                      "line": 2,
                      "column": 0
                    },
                    "end": {
                      "line": 2,
                      "column": 7
                    },
                    "identifierName": "angular"
                  },
                  "name": "angular"
                },
                "property": {
                  "type": "Identifier",
                  "start": 9,
                  "end": 15,
                  "loc": {
                    "start": {
                      "line": 2,
                      "column": 8
                    },
                    "end": {
                      "line": 2,
                      "column": 14
                    },
                    "identifierName": "module"
                  },
                  "name": "module"
                },
                "computed": false
              },
              "arguments": [
                {
                  "type": "StringLiteral",
                  "start": 16,
                  "end": 26,
                  "loc": {
                    "start": {
                      "line": 2,
                      "column": 15
                    },
                    "end": {
                      "line": 2,
                      "column": 25
                    }
                  },
                  "extra": {
                    "rawValue": "workshop",
                    "raw": "'workshop'"
                  },
                  "value": "workshop"
                }
              ]
            },
            "property": {
              "type": "Identifier",
              "start": 28,
              "end": 38,
              "loc": {
                "start": {
                  "line": 2,
                  "column": 27
                },
                "end": {
                  "line": 2,
                  "column": 37
                },
                "identifierName": "controller"
              },
              "name": "controller"
            },
            "computed": false
          },
          "arguments": [
            {
              "type": "StringLiteral",
              "start": 39,
              "end": 55,
              "loc": {
                "start": {
                  "line": 2,
                  "column": 38
                },
                "end": {
                  "line": 2,
                  "column": 54
                }
              },
              "extra": {
                "rawValue": "HomeController",
                "raw": "'HomeController'"
              },
              "value": "HomeController"
            },
            {
              "type": "FunctionExpression",
              "start": 57,
              "end": 101,
              "loc": {
                "start": {
                  "line": 2,
                  "column": 56
                },
                "end": {
                  "line": 5,
                  "column": 1
                }
              },
              "id": null,
              "generator": false,
              "expression": false,
              "async": false,
              "params": [
                {
                  "type": "Identifier",
                  "start": 66,
                  "end": 72,
                  "loc": {
                    "start": {
                      "line": 2,
                      "column": 65
                    },
                    "end": {
                      "line": 2,
                      "column": 71
                    },
                    "identifierName": "$scope"
                  },
                  "name": "$scope"
                },
                {
                  "type": "Identifier",
                  "start": 74,
                  "end": 95,
                  "loc": {
                    "start": {
                      "line": 2,
                      "column": 73
                    },
                    "end": {
                      "line": 2,
                      "column": 94
                    },
                    "identifierName": "authenticationService"
                  },
                  "name": "authenticationService"
                }
              ],
              "body": {
                "type": "BlockStatement",
                "start": 97,
                "end": 101,
                "loc": {
                  "start": {
                    "line": 3,
                    "column": 0
                  },
                  "end": {
                    "line": 5,
                    "column": 1
                  }
                },
                "body": [],
                "directives": []
              }
            }
          ]
        }
      }
    ],
    "directives": []
  },
  "comments": [],
  "tokens": [
    {
      "type": {
        "label": "name",
        "beforeExpr": false,
        "startsExpr": true,
        "rightAssociative": false,
        "isLoop": false,
        "isAssign": false,
        "prefix": false,
        "postfix": false,
        "binop": null
      },
      "value": "angular",
      "start": 1,
      "end": 8,
      "loc": {
        "start": {
          "line": 2,
          "column": 0
        },
        "end": {
          "line": 2,
          "column": 7
        }
      }
    },
    {
      "type": {
        "label": ".",
        "beforeExpr": false,
        "startsExpr": false,
        "rightAssociative": false,
        "isLoop": false,
        "isAssign": false,
        "prefix": false,
        "postfix": false,
        "binop": null,
        "updateContext": null
      },
      "start": 8,
      "end": 9,
      "loc": {
        "start": {
          "line": 2,
          "column": 7
        },
        "end": {
          "line": 2,
          "column": 8
        }
      }
    },
    {
      "type": {
        "label": "name",
        "beforeExpr": false,
        "startsExpr": true,
        "rightAssociative": false,
        "isLoop": false,
        "isAssign": false,
        "prefix": false,
        "postfix": false,
        "binop": null
      },
      "value": "module",
      "start": 9,
      "end": 15,
      "loc": {
        "start": {
          "line": 2,
          "column": 8
        },
        "end": {
          "line": 2,
          "column": 14
        }
      }
    },
    {
      "type": {
        "label": "(",
        "beforeExpr": true,
        "startsExpr": true,
        "rightAssociative": false,
        "isLoop": false,
        "isAssign": false,
        "prefix": false,
        "postfix": false,
        "binop": null
      },
      "start": 15,
      "end": 16,
      "loc": {
        "start": {
          "line": 2,
          "column": 14
        },
        "end": {
          "line": 2,
          "column": 15
        }
      }
    },
    {
      "type": {
        "label": "string",
        "beforeExpr": false,
        "startsExpr": true,
        "rightAssociative": false,
        "isLoop": false,
        "isAssign": false,
        "prefix": false,
        "postfix": false,
        "binop": null,
        "updateContext": null
      },
      "value": "workshop",
      "start": 16,
      "end": 26,
      "loc": {
        "start": {
          "line": 2,
          "column": 15
        },
        "end": {
          "line": 2,
          "column": 25
        }
      }
    },
    {
      "type": {
        "label": ")",
        "beforeExpr": false,
        "startsExpr": false,
        "rightAssociative": false,
        "isLoop": false,
        "isAssign": false,
        "prefix": false,
        "postfix": false,
        "binop": null
      },
      "start": 26,
      "end": 27,
      "loc": {
        "start": {
          "line": 2,
          "column": 25
        },
        "end": {
          "line": 2,
          "column": 26
        }
      }
    },
    {
      "type": {
        "label": ".",
        "beforeExpr": false,
        "startsExpr": false,
        "rightAssociative": false,
        "isLoop": false,
        "isAssign": false,
        "prefix": false,
        "postfix": false,
        "binop": null,
        "updateContext": null
      },
      "start": 27,
      "end": 28,
      "loc": {
        "start": {
          "line": 2,
          "column": 26
        },
        "end": {
          "line": 2,
          "column": 27
        }
      }
    },
    {
      "type": {
        "label": "name",
        "beforeExpr": false,
        "startsExpr": true,
        "rightAssociative": false,
        "isLoop": false,
        "isAssign": false,
        "prefix": false,
        "postfix": false,
        "binop": null
      },
      "value": "controller",
      "start": 28,
      "end": 38,
      "loc": {
        "start": {
          "line": 2,
          "column": 27
        },
        "end": {
          "line": 2,
          "column": 37
        }
      }
    },
    {
      "type": {
        "label": "(",
        "beforeExpr": true,
        "startsExpr": true,
        "rightAssociative": false,
        "isLoop": false,
        "isAssign": false,
        "prefix": false,
        "postfix": false,
        "binop": null
      },
      "start": 38,
      "end": 39,
      "loc": {
        "start": {
          "line": 2,
          "column": 37
        },
        "end": {
          "line": 2,
          "column": 38
        }
      }
    },
    {
      "type": {
        "label": "string",
        "beforeExpr": false,
        "startsExpr": true,
        "rightAssociative": false,
        "isLoop": false,
        "isAssign": false,
        "prefix": false,
        "postfix": false,
        "binop": null,
        "updateContext": null
      },
      "value": "HomeController",
      "start": 39,
      "end": 55,
      "loc": {
        "start": {
          "line": 2,
          "column": 38
        },
        "end": {
          "line": 2,
          "column": 54
        }
      }
    },
    {
      "type": {
        "label": ",",
        "beforeExpr": true,
        "startsExpr": false,
        "rightAssociative": false,
        "isLoop": false,
        "isAssign": false,
        "prefix": false,
        "postfix": false,
        "binop": null,
        "updateContext": null
      },
      "start": 55,
      "end": 56,
      "loc": {
        "start": {
          "line": 2,
          "column": 54
        },
        "end": {
          "line": 2,
          "column": 55
        }
      }
    },
    {
      "type": {
        "label": "function",
        "keyword": "function",
        "beforeExpr": false,
        "startsExpr": true,
        "rightAssociative": false,
        "isLoop": false,
        "isAssign": false,
        "prefix": false,
        "postfix": false,
        "binop": null
      },
      "value": "function",
      "start": 57,
      "end": 65,
      "loc": {
        "start": {
          "line": 2,
          "column": 56
        },
        "end": {
          "line": 2,
          "column": 64
        }
      }
    },
    {
      "type": {
        "label": "(",
        "beforeExpr": true,
        "startsExpr": true,
        "rightAssociative": false,
        "isLoop": false,
        "isAssign": false,
        "prefix": false,
        "postfix": false,
        "binop": null
      },
      "start": 65,
      "end": 66,
      "loc": {
        "start": {
          "line": 2,
          "column": 64
        },
        "end": {
          "line": 2,
          "column": 65
        }
      }
    },
    {
      "type": {
        "label": "name",
        "beforeExpr": false,
        "startsExpr": true,
        "rightAssociative": false,
        "isLoop": false,
        "isAssign": false,
        "prefix": false,
        "postfix": false,
        "binop": null
      },
      "value": "$scope",
      "start": 66,
      "end": 72,
      "loc": {
        "start": {
          "line": 2,
          "column": 65
        },
        "end": {
          "line": 2,
          "column": 71
        }
      }
    },
    {
      "type": {
        "label": ",",
        "beforeExpr": true,
        "startsExpr": false,
        "rightAssociative": false,
        "isLoop": false,
        "isAssign": false,
        "prefix": false,
        "postfix": false,
        "binop": null,
        "updateContext": null
      },
      "start": 72,
      "end": 73,
      "loc": {
        "start": {
          "line": 2,
          "column": 71
        },
        "end": {
          "line": 2,
          "column": 72
        }
      }
    },
    {
      "type": {
        "label": "name",
        "beforeExpr": false,
        "startsExpr": true,
        "rightAssociative": false,
        "isLoop": false,
        "isAssign": false,
        "prefix": false,
        "postfix": false,
        "binop": null
      },
      "value": "authenticationService",
      "start": 74,
      "end": 95,
      "loc": {
        "start": {
          "line": 2,
          "column": 73
        },
        "end": {
          "line": 2,
          "column": 94
        }
      }
    },
    {
      "type": {
        "label": ")",
        "beforeExpr": false,
        "startsExpr": false,
        "rightAssociative": false,
        "isLoop": false,
        "isAssign": false,
        "prefix": false,
        "postfix": false,
        "binop": null
      },
      "start": 95,
      "end": 96,
      "loc": {
        "start": {
          "line": 2,
          "column": 94
        },
        "end": {
          "line": 2,
          "column": 95
        }
      }
    },
    {
      "type": {
        "label": "{",
        "beforeExpr": true,
        "startsExpr": true,
        "rightAssociative": false,
        "isLoop": false,
        "isAssign": false,
        "prefix": false,
        "postfix": false,
        "binop": null
      },
      "start": 97,
      "end": 98,
      "loc": {
        "start": {
          "line": 3,
          "column": 0
        },
        "end": {
          "line": 3,
          "column": 1
        }
      }
    },
    {
      "type": {
        "label": "}",
        "beforeExpr": false,
        "startsExpr": false,
        "rightAssociative": false,
        "isLoop": false,
        "isAssign": false,
        "prefix": false,
        "postfix": false,
        "binop": null
      },
      "start": 100,
      "end": 101,
      "loc": {
        "start": {
          "line": 5,
          "column": 0
        },
        "end": {
          "line": 5,
          "column": 1
        }
      }
    },
    {
      "type": {
        "label": ")",
        "beforeExpr": false,
        "startsExpr": false,
        "rightAssociative": false,
        "isLoop": false,
        "isAssign": false,
        "prefix": false,
        "postfix": false,
        "binop": null
      },
      "start": 101,
      "end": 102,
      "loc": {
        "start": {
          "line": 5,
          "column": 1
        },
        "end": {
          "line": 5,
          "column": 2
        }
      }
    },
    {
      "type": {
        "label": ";",
        "beforeExpr": true,
        "startsExpr": false,
        "rightAssociative": false,
        "isLoop": false,
        "isAssign": false,
        "prefix": false,
        "postfix": false,
        "binop": null,
        "updateContext": null
      },
      "start": 102,
      "end": 103,
      "loc": {
        "start": {
          "line": 5,
          "column": 2
        },
        "end": {
          "line": 5,
          "column": 3
        }
      }
    },
    {
      "type": {
        "label": "eof",
        "beforeExpr": false,
        "startsExpr": false,
        "rightAssociative": false,
        "isLoop": false,
        "isAssign": false,
        "prefix": false,
        "postfix": false,
        "binop": null,
        "updateContext": null
      },
      "start": 104,
      "end": 104,
      "loc": {
        "start": {
          "line": 6,
          "column": 0
        },
        "end": {
          "line": 6,
          "column": 0
        }
      }
    }
  ]
}